…
So, before we can use the read_csv() function, we need to load the package. Also, if you recall, the missing data is encoded as “NULL” in the dataset. We’ll tell it to the function, so R will automatically convert all the “NULL” entries in the dataset into NA.
library(tidyverse)
interviews <- read_csv("data/SAFI_clean.csv", na = "NULL")
If you were to type in the code above, it is likely that the read.csv() function would appear in the automatically populated list of functions. This function is different from the read_csv() function, as it is included in the “base” packages that come pre-installed with R. 

Overall, read.csv() behaves similar to read_csv(), with a few notable differences. First, read.csv() coerces column names with spaces and/or special characters to different names (e.g. interview date becomes interview.date). Second, read.csv() stores data as a data.frame, where read_csv() stores data as a tibble. We prefer tibbles because they have nice printing properties among other desirable qualities. Read more about tibbles here.

The second statement in the code above creates a data frame but doesn’t output any data because, as you might recall, assignments (<-) don’t display anything. (Note, however, that read_csv may show informational text about the data frame that is created.) If we want to check that our data has been loaded, we can see the contents of the data frame by typing its name: interviews in the console.

interviews
## Try also
## View(interviews)
## head(interviews)
# A tibble: 131 x 14
   key_ID village interview_date      no_membrs years_liv respondent_wall… rooms
    <dbl> <chr>   <dttm>                  <dbl>     <dbl> <chr>            <dbl>
 1      1 God     2016-11-17 00:00:00         3         4 muddaub              1
 2      1 God     2016-11-17 00:00:00         7         9 muddaub              1
 3      3 God     2016-11-17 00:00:00        10        15 burntbricks          1
 4      4 God     2016-11-17 00:00:00         7         6 burntbricks          1
 5      5 God     2016-11-17 00:00:00         7        40 burntbricks          1
 6      6 God     2016-11-17 00:00:00         3         3 muddaub              1
 7      7 God     2016-11-17 00:00:00         6        38 muddaub              1
 8      8 Chirod… 2016-11-16 00:00:00        12        70 burntbricks          3
 9      9 Chirod… 2016-11-16 00:00:00         8         6 burntbricks          1
10     10 Chirod… 2016-12-16 00:00:00        12        23 burntbricks          5
# … with 121 more rows, and 7 more variables: memb_assoc <chr>,
#   affect_conflicts <chr>, liv_count <dbl>, items_owned <chr>, no_meals <dbl>,
#   months_lack_food <chr>, instanceID <chr>
…
  <chr>               
1 muddaub             
## first column of the data frame (as a vector)
interviews[[1]]
  [1]   1   1   3   4   5   6   7   8   9  10  11  12  13  14  15  16  17  18
 [19]  19  20  21  22  23  24  25  26  27  28  29  30  31  32  33  34  35  36
 [37]  37  38  39  40  41  42  43  44  45  46  47  48  49  50  51  52  21  54
 [55]  55  56  57  58  59  60  61  62  63  64  65  66  67  68  69  70  71 127
 [73] 133 152 153 155 178 177 180 181 182 186 187 195 196 197 198 201 202  72
 [91]  73  76  83  85  89 101 103 102  78  80 104 105 106 109 110 113 118 125
[109] 119 115 108 116 117 144 143 150 159 160 165 166 167 174 175 189 191 192
[127] 126 193 194 199 200
## first column of the data frame (as a data.frame)
interviews[1]
# A tibble: 131 x 1
   key_ID
    <dbl>
 1      1
 2      1
 3      3
 4      4
 5      5
 6      6
 7      7
 8      8
 9      9
10     10
# … with 121 more rows
…
filter(): subset rows on conditions
mutate(): create new columns by using information from other columns
group_by() and summarize(): create summary statistics on grouped data
arrange(): sort results
count(): count discrete values
Selecting columns and filtering rows
To select columns of a dataframe, use select(). The first argument to this function is the dataframe (interviews), and the subsequent arguments are the columns to keep, separated by commas. Alternatively, if you are selecting columns adjacent to each other, you can use a : to select a range of columns, read as “select columns from __ to __.”
# to select columns throughout the dataframe
select(interviews, village, no_membrs, months_lack_food)
# to select a series of connected columns
select(interviews, village:respondent_wall_type)
To choose rows based on a specific criteria, we can use the filter() function. The arguments after the dataframe are the condition(s) we want for our final dataframe to adhere to (e.g. village name is Chirodzo). We can chain a series of conditions together using commas between each condition.
# one condition
filter(interviews, village == "Chirodzo")
# A tibble: 39 x 14
   key_ID village interview_date      no_membrs years_liv respondent_wall… rooms
    <dbl> <chr>   <dttm>                  <dbl>     <dbl> <chr>            <dbl>
 1      8 Chirod… 2016-11-16 00:00:00        12        70 burntbricks        3
 2      9 Chirod… 2016-11-16 00:00:00         8         6 burntbricks        1
 3     10 Chirod… 2016-12-16 00:00:00        12        23 burntbricks        5
 4     34 Chirod… 2016-11-17 00:00:00         8        18 burntbricks        3
 5     35 Chirod… 2016-11-17 00:00:00         5        45 muddaub            1
 6     36 Chirod… 2016-11-17 00:00:00         6        23 sunbricks          1
 7     37 Chirod… 2016-11-17 00:00:00         3         8 burntbricks        1
 8     43 Chirod… 2016-11-17 00:00:00         7        29 muddaub            1
 9     44 Chirod… 2016-11-17 00:00:00         2         6 muddaub            1
10     45 Chirod… 2016-11-17 00:00:00         9         7 muddaub            1
# … with 29 more rows, and 7 more variables: memb_assoc <chr>,
#   affect_conflicts <chr>, liv_count <dbl>, items_owned <chr>, no_meals<dbl>,
#   months_lack_food <chr>, instanceID <chr>
# multiple conditions
…
